Import hex map coordinates — get_coordinates • usahex
…
    Value

    sf object for map, either the hexagons (polygon) or labels (point).

    Examples

get_coordinates(map = "usa50", coords = "hexmap")
#> Simple feature collection with 50 features and 6 fields
#> Geometry type: POLYGON
#> Dimension:     XY
#> Bounding box:  xmin: 0.8845727 ymin: -250 xmax: 433.8973 ymax: 0
#> CRS:           NA
#> # A tibble: 50 × 7
#>    abbr_usps abbr_gpo abbr_ap name      fips  geo_type                  geometry
#>  * <fct>     <fct>    <fct>   <fct>     <chr> <chr>                    <POLYGON>
#>  1 AK        Alaska   Alaska  Alaska    02    state    ((35.52559 0, 52.8461 -1…
#>  2 AL        Ala.     Ala.    Alabama   01    state    ((278.0127 -180, 295.333…
#>  3 AR        Ark.     Ark.    Arkansas  05    state    ((226.0512 -150, 243.371…
#>  4 AZ        Ariz.    Ariz.   Arizona   04    state    ((139.4486 -180, 156.769…
#>  5 CA        Calif.   Calif.  Californ… 06    state    ((87.48711 -150, 104.807…
#>  6 CO        Colo.    Colo.   Colorado  08    state    ((139.4486 -120, 156.769…
#>  7 CT        Conn.    Conn.   Connecti… 09    state    ((399.2563 -90, 416.5768…
#>  8 DE        Del.     Del.    Delaware  10    state    ((381.9357 -120, 399.256…
#>  9 FL        Fla.     Fla.    Florida   12    state    ((295.3332 -210, 312.653…
#> 10 GA        Ga.      Ga.     Georgia   13    state    ((312.6537 -180, 329.974…
#> # ℹ 40 more rows
get_coordinates(map = "usa50", coords = "labels")
#> Simple feature collection with 50 features and 6 fields
#> Geometry type: POINT
#> Dimension:     XY
#> Bounding box:  xmin: 18.20508 ymin: -230 xmax: 416.5768 ymax: -20
#> CRS:           NA
#> # A tibble: 50 × 7
#>    abbr_usps abbr_gpo abbr_ap name      fips  geo_type        geometry
#>  * <fct>     <fct>    <fct>   <fct>     <chr> <chr>            <POINT>
#>  1 AK        Alaska   Alaska  Alaska    02    state     (35.52559 -20)
#>  2 AL        Ala.     Ala.    Alabama   01    state    (278.0127 -200)
#>  3 AR        Ark.     Ark.    Arkansas  05    state    (226.0512 -170)
#>  4 AZ        Ariz.    Ariz.   Arizona   04    state    (139.4486 -200)
#>  5 CA        Calif.   Calif.  Californ… 06    state    (87.48711 -170)
#>  6 CO        Colo.    Colo.   Colorado  08    state    (139.4486 -140)
#>  7 CT        Conn.    Conn.   Connecti… 09    state    (399.2563 -110)
#>  8 DE        Del.     Del.    Delaware  10    state    (381.9358 -140)
#>  9 FL        Fla.     Fla.    Florida   12    state    (295.3332 -230)
#> 10 GA        Ga.      Ga.     Georgia   13    state    (312.6537 -200)
#> # ℹ 40 more rows
…
